<?xml version="1.0" encoding="utf-8"?>
<!-- Generator: Adobe Illustrator 25.0.1, SVG Export Plug-In . SVG Version: 6.00 Build 0)  -->
<svg version="1.1" id="Layer_1" xmlns="http://www.w3.org/2000/svg" xmlns:xlink="http://www.w3.org/1999/xlink" x="0px" y="0px"
	 viewBox="0 0 30 30" style="enable-background:new 0 0 30 30;" xml:space="preserve">
<style type="text/css">
	.st0{fill:#4A4A4A;}
</style>
<g>
	<path class="st0" d="M25.9,10.5c-0.4-6.9-2.2-10.3-5.7-10.3h-4.9h-4.9C7,0.1,5.2,3.6,4.8,10.5c-0.5,8.5,4.1,18.4,6,18.7h-0.1v0.5
		c0,0.1,0.1,0.2,0.2,0.2h1.9c0.1,0,0.2-0.1,0.2-0.2v-0.5h2.3h2.3v0.5c0,0.1,0.1,0.2,0.2,0.2h1.9c0.1,0,0.2-0.1,0.2-0.2v-0.5h-0.1
		C21.9,28.9,26.4,19,25.9,10.5z M6.7,10.6c0.2-3.2,0.7-5.5,1.5-7C9,2.2,9.8,2,10.5,2h4.9h4.9c0.7,0,1.5,0.2,2.3,1.6
		c0.8,1.5,1.3,3.8,1.5,7c0,0.4,0,0.8,0,1.2c-2.6,0.3-5.9,0.4-8.6,0.4c-3,0-6.2-0.2-8.7-0.4C6.7,11.4,6.7,11,6.7,10.6z M19.4,27.3
		h-4.1h-4.1c-0.5-0.6-1.7-2.4-2.9-5.8c-0.6-1.7-1.5-4.8-1.7-8.2c2.5,0.3,5.6,0.4,8.5,0.4c0.1,0,0.1,0,0.2,0c2.7,0,6-0.2,8.6-0.4
		c-0.2,3.4-1.1,6.5-1.7,8.2C21.2,24.8,20,26.7,19.4,27.3z"/>
	<path class="st0" d="M9,11.3c0.3,0,0.6-0.1,0.8-0.3c0.3,0,0.6,0.1,0.9,0.1c0.1,0,0.2,0,0.4,0c0.5,0,0.9,0,1.4-0.1
		c0.2,0,0.3-0.2,0.3-0.4c0-0.2-0.2-0.3-0.4-0.3c-0.5,0.1-1.1,0.1-1.7,0.1c-0.2,0-0.4,0-0.6,0C9.9,10,9.5,9.7,9,9.7
		c-0.6,0-1,0.4-1,0.8C8,10.9,8.4,11.3,9,11.3z"/>
	<path class="st0" d="M12.3,14.7c-0.5,0.1-1.1,0.1-1.7,0.1c-0.2,0-0.4,0-0.6,0c-0.1-0.4-0.5-0.7-1-0.7c-0.6,0-1,0.4-1,0.8
		s0.5,0.8,1,0.8c0.3,0,0.6-0.1,0.8-0.3c0.3,0,0.6,0.1,0.9,0.1c0.1,0,0.2,0,0.4,0c0.5,0,0.9,0,1.4-0.1c0.2,0,0.3-0.2,0.3-0.4
		C12.6,14.8,12.5,14.7,12.3,14.7z"/>
</g>
</svg>
